Review #	Variety	Style	Country	Stars	price	popularity
163	Asian Chicken Style Instant Noodles	Pack	Vietnam	3.5	1.882852895337168	10
2023	Authentic Street Food Bean Black	Cup	UK	0	1.3085523011980438	2
957	Soy Sauce 100% Flavor Vegetarian	Pack	Japan	4.25	1.3540977966675949	9
754	Version) Ansungtangmyun (US	Pack	United States	3.75	3.3111276758422346	7
3748	Bone Soup Broth Noodle Beef	Bowl	United States	5	4.5566094728780815	2
3817	Noodles With Bamnut Sweet Hot Seasoning	Box	Singapore	4	1.2530610529671138	4
3047	Bokkeummyun Buldak 10,000 SHU (Nuclear Hek Fire Noodle/2x)	Pack	South Korea	3.5	3.45580744636008	2
2155	Spicy Noodle Aloe Potato Sauce With Purple Mian Miso Vera Guan Sweet	Pack	Taiwan	3.5	3.0224084609443977	2
871	Shrimp Hot & Artificial Sour	Pack	China	4	2.101645568931944	4
623	"Series Vegetarian ""A"""	Pack	Taiwan	3.25	2.312106978782096	8
782	(New) Bowl Savory Shrimp Noodle	Bowl	United States	3.25	2.066266577335416	5
2945	Instant Flavor Three Noodle Cup 449 Chicken	Pack	Taiwan	1.75	2.7432886285019022	4
2273	Noodle Kimchi Q Korean Bucket Flavor A	Bowl	Taiwan	4.25	4.0363785788058	1
650	Artificial Chicken	Pack	China	4	1.419540280876477	3
1435	2 Noodles Flavour Laksa Assam Minute	Pack	Singapore	4	2.192984917839873	6
1487	Snabbnudlar Asia Kycklingsmak	Pack	Sweden	3.25	3.4858698110247173	4
200	Noodle Bowl Chicken Spicy	Bowl	United States	4.5	1.2096238698247437	8
1572	Noodle Instant Flavor Artificial Seafood	Pack	China	3.75	3.3524302858547794	4
1900	Perisa Kari Mi Goreng Always Kapitan	Pack	Malaysia	5	4.527089681110868	12
1618	With Camellia Flavor Oil Bean Noodles Sauce This Aloe Spicy	Pack	Taiwan	2.5	3.676153713698518	1
240	Mentaiko Spaghetti Aunt Durum	Bowl	Japan	4.5	3.482777082991749	8
553	60 Ingredients	Cup	South Korea	2.75	3.1462128244568284	4
1740	Beef Braised Noodle	Pack	China	4.25	2.4644994553171173	9
346	Chicken Bowl Spicy Noodle Artificial	Bowl	South Korea	3.125	3.8958868341084862	9
1146	Delight Precooked Chicken 2pm Curry Noodles	Pack	Nepal	3.5	2.144141135320809	5
2785	Flavour Instant Curry Green Authentic Style Thai Noodles	Pack	Thailand	5	3.6410081678218047	6
3107	Chicken Flavor Bowl Soup Noodle	Bowl	South Korea	3.5	3.121311548223888	2
701	Lime Shrimp Cup Noodles Big Chili	Cup	United States	4	2.032446441390832	8
338	Cup Big Chicken Noodles	Cup	United States	2.25	2.373803635303595	6
149	Udon Kitsune Akai	Bowl	Japan	4	2.1528450529687206	3
436	Artificial Sauerkraut Beef With	Bowl	Taiwan	3.75	1.6587322460049765	3
842	Artificial Stew Beef	Bowl	China	3.75	4.489144852906687	7
2059	Noodle Radish Instant Flavour Beef And	Pack	Hong Kong	2.5	2.239824098150726	6
3265	Curry Elephant Blue Green Noodle	Box	Taiwan	5	2.8250055558746805	6
454	Vegetable Asian	Pack	United States	1.5	2.4059424505745453	3
2949	Spirit Noodles Asian Flavor Asia Vegetable	Cup	Germany	2	2.929579278877215	5
3082	Instant Flavor Banana Noodles	Pack	Ukraine	3.5	2.824191898658244	7
814	Beef	Pack	Indonesia	3.5	1.7382448901976426	9
246	Artificial Pork Jumbo	Pack	Thailand	3	3.176086574012503	2
1396	Snack Flavor Star Yakisoba Baby Noodle	Pack	Japan	4.75	3.456332097826845	2
374	Noodles Asian Shrimp Instant Style	Pack	Vietnam	3.75	2.218180104734881	4
3409	Asahikawa Shoyu Hokkaido Ramen	Pack	Japan	2	2.750137116215952	5
2819	Laksa Flavour Asam Instant Noodles	Pack	Malaysia	3.75	2.360699074932564	6
3434	Aloha Noodle Bowl Chicken Flavor Soup	Bowl	Souh Korea	3.5	3.56744925365414	2
3794	Flavor Beef Ramen	Pack	United States	4.5	2.991200081452821	3
1433	2 Noodles Curry Flavour Minute	Pack	Singapore	3.75	3.0069372641548906	4
696	Chicken Cup Big Spicy Noodles	Cup	United States	3.5	2.584339294888513	5
2519	Anchovy Flavor Rice Guava Noodles	Tray	South Korea	1	3.876913662864133	6
398	Bowl Noodle Beef With Vegetables	Bowl	South Korea	3.75	3.259690515772239	5
22	Soup Noodle Ansungtangmyun	Pack	South Korea	3.75	3.003369789626061	7
121	Curry Bekse	Pack	South Korea	4	2.634768206929392	1
635	Buckwheat Bibim Ramyon	Pack	South Korea	1.1	2.2918922348285755	9
2154	Eyes Noodle With Sauce Original Bean Black Sesame	Pack	Taiwan	4	4.347654203930385	4
1723	Beef Noodles Soup With Artificial Instant Base	Pack	China	3.75	3.2182326958982737	4
610	"Series Chicken Artificial ""A"""	Pack	Taiwan	3.25	2.619997728364191	1
3948	Broth Artisanal Ramen / Miso Sari Ramen Jongga -	Pack	South Korea	3.5	3.243267111261949	4
954	Japanische Naturküche ARCHE Nudelsuppe	Pack	Japan	3.25	0.5243364867983442	4
1004	Artificial Pork Flavour	Pack	Thailand	3	1.6620092071435146	4
1011	Hot Spicy Ramen Bowl Vegetables Chicken With & Flavor Noodles	Bowl	United States	4	2.2743442478177576	2
1502	Noodles Pork Artificial Flavor	Pack	China	4	2.299506302935159	5
359	& Spicy Bowl Beef Hot Noodles	Bowl	United States	3.75	3.953015413450769	5
213	Bowl Spicy Noodle Lobster Artificial	Bowl	United States	4	2.161346593365972	5
3391	Ramen Aji Shoyu Boh	Pack	Japan	5	3.697852915365377	5
2149	Cyanobacteria Noodle Aloe Oil Ginger Mian Guan With Sauce Vera	Pack	Taiwan	5	3.136960664286832	3
3061	Budae Jjigae	Bowl	United States	3.75	2.649419937983779	5
3067	Hot & Spicy Noodle Soup Bowl Flavor	Bowl	South Korea	5	2.9785650069672305	9
2782	Spicy Taste Vinegar With Black	Pack	Taiwan	2	2.164936403738707	5
1077	Sauce Red Noodle Onion & Sesame Aloe	Pack	Taiwan	5	1.9759649080609176	8
502	Beef Stick Rice	Bowl	Thailand	2	1.6947571345129295	2
653	Ribs Artificial Pork	Pack	China	4	2.7993159271746983	5
387	Noodles Savory Beef & Bowl Rich	Bowl	United States	3.75	2.76285147361562	7
3594	Cream Mentai Udon Bukkake	Bowl	Japan	3.75	2.6628315690524373	6
138	Shrimp 100 Furong	Pack	Taiwan	3	2.955433667047459	3
438	Beef	Bowl	South Korea	3.75	2.251974132433776	5
935	Beef	Cup	United States	3.5	4.896291965591094	1
3088	Laksa Authentic Thai	Box	Malaysia	5	2.3615301140721776	7
491	Stew Beef Artificial	Pack	China	3.75	2.092959407816154	5
137	Rich Savory Noodles & Chicken Bowl	Bowl	United States	1.75	3.744928143809336	4
3370	Artificial Flavour Dongpo's Braised Prok	Bowl	United States	3.5	2.2001097300167536	2
1863	Beef Artificial Pickled Flavor Vegetable Broad Noodle	Pack	China	0	2.946641439645038	7
2212	Bul Jjamppong	Pack	South Korea	3.75	2.8520030395595626	5
1673	Cock Vegetarian Brand Noodle Black Chicken	Pack	Taiwan	3.5	2.9818274277295536	4
128	Artificial Duck PA-LO	Pack	Thailand	0.1	1.8109165717414104	5
217	Noodle Kimchi Bowl	Bowl	South Korea	4	1.5959273291235352	3
2523	Noodle Budae Soup Jjigae	Pack	South Korea	4.5	2.408861500427874	7
3363	To Instant Noodle Back Henan'	Bowl	China	5	3.587576266493168	7
58	A-One Tom Shrimp Bun	Pack	Taiwan	3	3.621895298572509	3
3349	Mix Soup Flavour Beef Noodles & Oriental	Pack	Canada	3	2.6679738757316405	11
227	Guisado Noodle Rice Bihon	Pack	Philippines	1.75	2.692480364305585	3
2263	Noodle Pot Beef Flavor Hot Broad Artificial	Pack	China	4.25	3.4730286010875275	4
408	Mi Hot Tom Cay Shrimp Chua 3 Mien sour	Pack	Vietnam	2.25	1.7304240192994746	6
2152	Black Cyanobacteria With Ginger Noodle Oil Bean Eyes Sauce	Pack	Taiwan	5	2.562324060646759	4
119	& Chicken Artificial Pork	Pack	Taiwan	3.4	2.872326636419417	7
531	Beef	Pack	Thailand	3.25	1.6282160663525218	3
1079	Aloe Noodle Vegetable Sauce	Pack	Taiwan	5	2.901279978354699	2
792	(New) Bowl Chicken Spicy Noodle	Bowl	United States	4.5	2.291392752792669	5
3939	Asian Miso Sesame Style Noodle & Garlic With Teriyaki	Bowl	United States	0.25	4.771789818212884	4
1667	Noodles Camelia Oil Sauce Thin With Aloe Vegetable Flavor	Pack	Taiwan	5	2.4154629202844173	3
2817	Hot Bird 30 Second Noodle	Box	China	3.75	1.0500491329771098	10
1062	Minute Asian Step-1 1 Ginger Lemongrass Noodles	Pack	United States	3.75	3.3212004703523497	5
396	Yum Tom spicy Hot Bestcook Shrimp	Bowl	Vietnam	4.25	3.41121357692511	5
2707	Udon Tanuki Big	Bowl	Japan	3.75	2.2958413560518744	12
2367	Bokkeummyun Spicy Buldak Haek 2x	Pack	South Korea	4	1.6323319883012943	7
453	Bowl Noodle Chicken Savory	Bowl	United States	3.25	3.1362940620231807	3
3150	Baby Somen	Pack	Japan	NR	1.5168018506846657	7
1039	Hot Vegetables Shrimp Noodles Bowl Ramen With Flavor & Spicy	Bowl	United States	4.25	1.0360008129662035	6
1161	100 Chilli Flavour Soto Green	Pack	Indonesia	3.75	3.325543267085008	8
2779	Sauce Barbecue Curry	Pack	Taiwan	5	3.412333714213495	4
2920	Shrimp Yum Noodles Authentic Thai Flavour Tom Style Instant	Pack	Thailand	3.75	2.2938691937301705	5
3499	Flavour Spiced Noodles Duck Multigrain Five Baked	Cup	Singapore	3.75	2.811188187270468	7
508	Beef	Cup	South Korea	3.75	2.044796729976872	7
2770	Yakisoba Barbeque	Tray	Japan	4.5	2.958042941234945	5
2297	Beef Sauerkraut Artificial Bowl With Instant Flavor Noodles	Bowl	China	3.25	3.332765136582219	6
1782	Flavour Instant Beef Noodles	Pack	Canada	0	2.2770397364270982	2
2064	Rice Arrabiata Bucatini	Pack	United States	5	2.823903697167822	5
2025	Mein Chow Food Authentic Street	Cup	UK	2	3.27259491668341	1
893	Bowl Noodle Shrimp Flavor	Bowl	South Korea	3.25	1.542336751256332	5
3494	Beef Flavour Salted With Mushrooms Artificial	Bowl	United States	4	2.94503950481866	5
824	Cucumber Men Bibim	Pack	South Korea	5	4.199753878359831	9
530	yum Artificial Tom Shrimp	Bowl	Thailand	3.5	4.32207868430566	5
3335	Bibimmyun	Pack	South Korea	4.5	2.872397683161604	3
640	Beef Spicy Artificial	Pack	China	4.25	1.505896746393875	5
666	Black Chicken Rooster	Pack	Taiwan	1.5	2.495623652577019	6
2072	Of Taste Asia Ramen Bowl Sukiyaki Flavor Beef	Bowl	United States	5	3.3879027671205693	6
664	Curry Bangkok Rice Noodle	Pack	United States	2.75	3.196688678446745	6
1503	Shrimp Noodle Habanero Soup Flavor Bowl Lime	Bowl	United States	3.25	2.980114998634481	4
1874	Perisa Goreng Tom Mi Yam Always Thai	Pack	Malaysia	2.5	4.611059600098973	3
2964	Beef Noodle Style & Beef Bowl Pho Vietnamese	Bowl	United States	4.75	2.701937023544274	3
1926	Noodle Soup Ramen Less Flavor Noodles Spicy Bowl Chicken Hot Sodium &	Bowl	United States	4	4.603088773613495	3
2186	Noodles Assorted Seafood	Pack	China	3.5	2.123051855651776	3
2150	Sauce With Purple Bean Miso Potato Eyes Noodle Sweet Spicy Black	Pack	Taiwan	3.25	3.088818011017973	4
625	Bombay Boy Bad	Cup	UK	4	2.0593857895379664	8
2153	Noodle Guan Basil Vera Pumpkin With Sauce Aloe Mian	Pack	Taiwan	3.75	2.298129274214165	4
1825	Chilli Noodle Oil Broad Flavor	Pack	China	4.5	3.8781080983343497	7
327	Mi Mien Hum Tom Lobster 3	Pack	Vietnam	3.5	2.9411912545251155	1
329	Artificial Beef Flavor	Bowl	Thailand	3.5	2.8766065015446163	1
518	Artificial Chicken	Bowl	China	4.5	2.516976715673472	4
2831	Sano Banri Ramen	Box	Japan	4.5	2.55020000066058	4
2934	Flavor Big Seafood Bowl	Bowl	South Korea	3.75	3.0769282179674944	6
1076	Vegetable Noodle Sauce Black & Sauce Sesame Beans Eyed	Pack	Taiwan	3.75	3.8577414239489736	6
110	Artificial Chicken	Pack	Philippines	1.5	2.457918831889905	4
2324	Jjajangmyeon Bul	Pack	South Korea	5	2.5099321366170075	5
2242	Noodles With Vegetables Style Beef	Cup	Canada	2.75	4.970917399419506	11
3388	Ramen Bowl Instant 3 Big	Bowl	South Korea	5	4.723724376669543	6
3940	Bubuka Soba Abura	Tray	Japan	5	5.018713516538849	5
484	Myon Bekse Curry	Cup	South Korea	4.25	2.9074046574993013	7
2712	2 Spicy Noodles Masala Version) (Export Minute	Pack	India	5	3.619033774638136	2
1272	Noodle Grilled Spicy Baked Ramyun Beef	Pack	South Korea	3.5	4.22130872706726	5
2362	Instant Spicy Bowl Artificial Noodles Flavor Beef	Bowl	China	3.75	2.746598620586924	4
3834	Beijing Jjambbong Ramen	Pack	South Korea	4.5	3.767720595210116	4
